[
  {
    "href": "/dashboard/profile",
    "icon": "school",
    "label": "Profile"
  },
  {
    "href": "/dashboard/feed",
    "icon": "school",
    "label": "Feed"
  },
  {
    "href": "/dashboard/debates",
    "icon": "forum",
    "label": "Debates"
  },
  {
    "href": "/dashboard/requests",
    "icon": "email-multiple",
    "label": "Requests"
  },
  {
    "href": "/dashboard/settings",
    "icon": "settings",
    "label": "Settings"
  }
]
